…
<img src="p8105_hw6_xy2476_files/figure-gfm/unnamed-chunk-14-1.png" width="90%" />

``` r
#95% CI
betas %>% 
  summarize(
    ci_lower = quantile(beta_c, 0.025),
    ci_upper = quantile(beta_c, 0.975)
  )
```

    ## `summarise()` ungrouping output (override with `.groups` argument)

    ## # A tibble: 500 x 3
    ##    .id   ci_lower ci_upper
    ##    <chr>    <dbl>    <dbl>
    ##  1 001       2.04     2.04
    ##  2 002       2.03     2.03
    ##  3 003       2.05     2.05
    ##  4 004       2.07     2.07
    ##  5 005       1.97     1.97
    ##  6 006       1.99     1.99
    ##  7 007       2.00     2.00
    ##  8 008       2.00     2.00
    ##  9 009       2.01     2.01
    ## 10 010       2.02     2.02
    ## # … with 490 more rows
